Figure 4D - GEP usage per T lineage
…
print(df)

## # A tibble: 27 × 5
##    tcell_lineage GEP_with_max_usage ncells totalcells    freq
##    <chr>         <fct>               <int>      <int>   <dbl>
##  1 CD4           other                   3       6558  0.0457
##  2 CD4           GEP3                 3978       6558 60.7   
##  3 CD4           GEP4                 1879       6558 28.7   
##  4 CD4           GEP5                   97       6558  1.48  
##  5 CD4           GEP6                  601       6558  9.16  
##  6 CD8           other                   1       9828  0.0102
##  7 CD8           GEP3                 4437       9828 45.1   
##  8 CD8           GEP4                 1036       9828 10.5   
##  9 CD8           GEP5                  133       9828  1.35  
## 10 CD8           GEP6                 4221       9828 42.9   
## # ℹ 17 more rows
…
